module gitlab.com/harkamal/iban-validator

go 1.18

require github.com/gorilla/mux v1.8.0

require (
	github.com/PuerkitoBio/purell v1.1.1 // indirect
	github.com/PuerkitoBio/urlesc v0.0.0-20170810143723-de5bf2ad4578 // indirect
	github.com/asaskevich/govalidator v0.0.0-20210307081110-f21760c49a8d // indirect
	github.com/felixge/httpsnoop v1.0.2 // indirect
	github.com/fsnotify/fsnotify v1.5.1 // indirect
	github.com/go-openapi/analysis v0.21.2 // indirect
	github.com/go-openapi/errors v0.20.2 // indirect
	github.com/go-openapi/inflect v0.19.0 // indirect
	github.com/go-openapi/jsonpointer v0.19.5 // indirect
	github.com/go-openapi/jsonreference v0.19.6 // indirect
	github.com/go-openapi/loads v0.21.1 // indirect
	github.com/go-openapi/runtime v0.23.3 // indirect
	github.com/go-openapi/spec v0.20.4 // indirect
	github.com/go-openapi/strfmt v0.21.2 // indirect
	github.com/go-openapi/swag v0.21.1 // indirect
	github.com/go-openapi/validate v0.21.0 // indirect
	github.com/go-stack/stack v1.8.1 // indirect
	github.com/go-swagger/go-swagger v0.29.0 // indirect
	github.com/gorilla/handlers v1.5.1 // indirect
	github.com/hashicorp/hcl v1.0.0 // indirect
	github.com/jessevdk/go-flags v1.5.0 // indirect
	github.com/josharian/intern v1.0.0 // indirect
	github.com/kr/pretty v0.3.0 // indirect
	github.com/kr/text v0.2.0 // indirect
	github.com/magiconair/properties v1.8.6 // indirect
	github.com/mailru/easyjson v0.7.7 // indirect
	github.com/mitchellh/mapstructure v1.4.3 // indirect
	github.com/oklog/ulid v1.3.1 // indirect
	github.com/pelletier/go-toml v1.9.4 // indirect
	github.com/pkg/errors v0.9.1 // indirect
	github.com/rogpeppe/go-internal v1.8.1 // indirect
	github.com/spf13/afero v1.8.2 // indirect
	github.com/spf13/cast v1.4.1 // indirect
	github.com/spf13/jwalterweatherman v1.1.0 // indirect
	github.com/spf13/pflag v1.0.5 // indirect
	github.com/spf13/viper v1.10.1 // indirect
	github.com/subosito/gotenv v1.2.0 // indirect
	github.com/toqueteos/webbrowser v1.2.0 // indirect
	go.mongodb.org/mongo-driver v1.9.0 // indirect
	golang.org/x/mod v0.6.0-dev.0.20220106191415-9b9b3d81d5e3 // indirect
	golang.org/x/net v0.0.0-20220403103023-749bd193bc2b // indirect
	golang.org/x/sys v0.0.0-20220405210540-1e041c57c461 // indirect
	golang.org/x/text v0.3.7 // indirect
	golang.org/x/tools v0.1.10 // indirect
	golang.org/x/xerrors v0.0.0-20200804184101-5ec99f83aff1 // indirect
	gopkg.in/ini.v1 v1.66.4 // indirect
	gopkg.in/yaml.v2 v2.4.0 // indirect
)
